Bayesian approach | PSYC753 Data Fluency
…
As we did in the previous session, we can use Bayes Factors to compare the models with different higher-order polynomial components.

Unfortunately, poly() does not work seamlessly with lmBF, as it did with lm. We need to create separate variables in SurveyData for the quadratic and cubic components before working out the Bayes Factors with lmBF.

To add the quadratic component to SurveyData:

SurveyData <- 
  SurveyData %>% mutate( age2 = poly(age,2)[,"2"] )

Explanation of the code: The code takes SurveyData, then uses mutate to add a new variable age2 to the dataset. age2 contains the quadratic component of age, specified using poly(age,2)[,"2"].

We can see the new variable age2 when we look at SurveyData again:

SurveyData
> # A tibble: 150 x 4
>      age happiness anxiety    age2
>    <dbl>     <dbl>   <dbl>   <dbl>
>  1  66.0      7.85    2.33  0.0761
>  2  35.0      7.56    2.58  0.0483
>  3  58.6      7.59    3.43 -0.0440
>  4  35.0      7.06    1.67  0.0481
>  5  60.2      7.96    2.13 -0.0246
>  6  67.5      8.11    1.09  0.110 
>  7  44.4      6.99    3.43 -0.0754
>  8  66        7.95    3.82  0.0767
>  9  69.6      8.35    3.37  0.161 
> 10  55.6      7.58    2.71 -0.0729
> # ... with 140 more rows

Now create the variable for the cubic component:

SurveyData <- 
  SurveyData %>% mutate( age3 = poly(age,3)[,"3"] )

Explanation of the code: The code takes SurveyData, then uses mutate to add a new variable age3 to the dataset. age3 contains the quadratic component of age, specified using poly(age,3)[,"3"].

We can see the new variable age3 when we look at SurveyData again:

SurveyData
> # A tibble: 150 x 5
>      age happiness anxiety    age2     age3
>    <dbl>     <dbl>   <dbl>   <dbl>    <dbl>
>  1  66.0      7.85    2.33  0.0761  0.00888
>  2  35.0      7.56    2.58  0.0483  0.0353 
>  3  58.6      7.59    3.43 -0.0440 -0.0988 
>  4  35.0      7.06    1.67  0.0481  0.0356 
>  5  60.2      7.96    2.13 -0.0246 -0.0974 
>  6  67.5      8.11    1.09  0.110   0.0707 
>  7  44.4      6.99    3.43 -0.0754  0.0898 
>  8  66        7.95    3.82  0.0767  0.00993
>  9  69.6      8.35    3.37  0.161   0.180  
> 10  55.6      7.58    2.71 -0.0729 -0.0785 
> # ... with 140 more rows
…
